Project 1: Wrangling, Exploration, Visualization
…
SDS322E

Data Wrangling, Exploration, Visualization

Sarah Isaack sji259

Introduction

Paragraph or two introducing your datasets and variables, why they are interesting to you, etc.

library(readr)
state_candy <- read_csv("/stor/home/sji259/project1/state_candy.csv")
state_candy

## # A tibble: 51 x 3
##    State `Top Candy`                Pounds
##    <chr> <chr>                       <dbl>
##  1 AL    Starburst                  109287
##  2 AK    Sour Patch Kids              4782
##  3 AZ    Hot Tamales                770928
##  4 AR    Jolly Ranchers             211337
##  5 CA    Reese's Peanut Butter cup 1209299
##  6 CO    Hershey's Kisses           119050
##  7 CT    Almond Joy                   2873
##  8 DE    Skittles original           19827
##  9 FL    Reese's Peanut Butter cup  578292
## 10 GA    Swedish Fish               136319
## #  with 41 more rows
…
Tidying: Reshaping

If your datasets are tidy already, demonstrate that you can reshape data with pivot wider/longer here (e.g., untidy and then retidy). Alternatively, it may be easier to wait until the wrangling section so you can reshape your summary statistics. Note here if you are going to do this.

library(dplyr)
library(tidyr)
# My data was already tidy, so I will be untidying and
# retidying it#
state_candy_wide <- state_candy %>% pivot_wider(names_from = "Top Candy", 
    values_from = "Pounds")
state_candy_wide %>% pivot_longer(2:20, names_to = "Top Candy", 
    values_to = "Pounds") %>% na.omit

## # A tibble: 51 x 3
##    State `Top Candy`                Pounds
##    <chr> <chr>                       <dbl>
##  1 AL    Starburst                  109287
##  2 AK    Sour Patch Kids              4782
##  3 AZ    Hot Tamales                770928
##  4 AR    Jolly Ranchers             211337
##  5 CA    Reese's Peanut Butter cup 1209299
##  6 CO    Hershey's Kisses           119050
##  7 CT    Almond Joy                   2873
##  8 DE    Skittles original           19827
##  9 FL    Reese's Peanut Butter cup  578292
## 10 GA    Swedish Fish               136319
## #  with 41 more rows

candy_rank_wide <- candy_rankings %>% pivot_wider(names_from = "competitorname", 
    values_from = "winpercent")
candy_rank_wide %>% pivot_longer("100 Grand":"Whoppers", names_to = "competitorname", 
    values_to = "winpercent") %>% na.omit

## # A tibble: 85 x 13
##    chocolate fruity caramel peanutyalmondy nougat crispedricewafer hard  bar  
##    <lgl>     <lgl>  <lgl>   <lgl>          <lgl>  <lgl>            <lgl> <lgl>
##  1 TRUE      FALSE  TRUE    FALSE          FALSE  TRUE             FALSE TRUE 
##  2 TRUE      FALSE  FALSE   FALSE          TRUE   FALSE            FALSE TRUE 
##  3 TRUE      FALSE  FALSE   FALSE          TRUE   FALSE            FALSE TRUE 
##  4 FALSE     FALSE  FALSE   FALSE          FALSE  FALSE            FALSE FALSE
##  5 FALSE     FALSE  FALSE   FALSE          FALSE  FALSE            FALSE FALSE
##  6 FALSE     TRUE   FALSE   FALSE          FALSE  FALSE            FALSE FALSE
##  7 TRUE      FALSE  FALSE   TRUE           FALSE  FALSE            FALSE TRUE 
##  8 TRUE      FALSE  TRUE    TRUE           TRUE   FALSE            FALSE TRUE 
##  9 FALSE     FALSE  FALSE   TRUE           FALSE  FALSE            FALSE FALSE
## 10 FALSE     FALSE  FALSE   FALSE          FALSE  FALSE            FALSE FALSE
## #  with 75 more rows, and 5 more variables: pluribus <lgl>,
## #   sugarpercent <dbl>, pricepercent <dbl>, competitorname <chr>,
## #   winpercent <dbl>
…
anti_join(candy_rankings, state_candy, by = c(competitorname = "Top Candy"))

## # A tibble: 72 x 13
##    competitorname chocolate fruity caramel peanutyalmondy nougat
##    <chr>          <lgl>     <lgl>  <lgl>   <lgl>          <lgl> 
##  1 100 Grand      TRUE      FALSE  TRUE    FALSE          FALSE 
##  2 One dime       FALSE     FALSE  FALSE   FALSE          FALSE 
##  3 One quarter    FALSE     FALSE  FALSE   FALSE          FALSE 
##  4 Air Heads      FALSE     TRUE   FALSE   FALSE          FALSE 
##  5 Baby Ruth      TRUE      FALSE  TRUE    TRUE           TRUE  
##  6 Boston Baked  FALSE     FALSE  FALSE   TRUE           FALSE 
##  7 Candy Corn     FALSE     FALSE  FALSE   FALSE          FALSE 
##  8 Caramel Apple FALSE     TRUE   TRUE    FALSE          FALSE 
##  9 Charleston Ch TRUE      FALSE  FALSE   FALSE          TRUE  
## 10 Chewey Lemonh FALSE     TRUE   FALSE   FALSE          FALSE 
## #  with 62 more rows, and 7 more variables: crispedricewafer <lgl>,
## #   hard <lgl>, bar <lgl>, pluribus <lgl>, sugarpercent <dbl>,
## #   pricepercent <dbl>, winpercent <dbl>
…
Wrangling

joined_candy %>% mutate(Kilograms = (Pounds * 0.453592))

## # A tibble: 51 x 16
##    competitorname chocolate fruity caramel peanutyalmondy nougat
##    <chr>          <lgl>     <lgl>  <lgl>   <lgl>          <lgl> 
##  1 3 Musketeers   TRUE      FALSE  FALSE   FALSE          TRUE  
##  2 Almond Joy     TRUE      FALSE  FALSE   TRUE           FALSE 
##  3 Hershey's Kis TRUE      FALSE  FALSE   FALSE          FALSE 
##  4 Hershey's Kis TRUE      FALSE  FALSE   FALSE          FALSE 
##  5 Hershey's Kis TRUE      FALSE  FALSE   FALSE          FALSE 
##  6 Lemonhead      FALSE     TRUE   FALSE   FALSE          FALSE 
##  7 M&M's          TRUE      FALSE  FALSE   FALSE          FALSE 
##  8 M&M's          TRUE      FALSE  FALSE   FALSE          FALSE 
##  9 M&M's          TRUE      FALSE  FALSE   FALSE          FALSE 
## 10 M&M's          TRUE      FALSE  FALSE   FALSE          FALSE 
## #  with 41 more rows, and 10 more variables: crispedricewafer <lgl>,
## #   hard <lgl>, bar <lgl>, pluribus <lgl>, sugarpercent <dbl>,
## #   pricepercent <dbl>, winpercent <dbl>, State <chr>, Pounds <dbl>,
## #   Kilograms <dbl>
…
In order to visualize which Halloween candies were popular in the most states, I first used group_by to group all of the candies together, then I used summarize to count up the distinct states that each candy was the favorite of. Lastly, I arranged this count in descending order so that the most popular candies could be viewed. From this I gathered that Reeses cups, Sour Patch Kids, and Starburst are tied for most popular as they all are the favorite in 6 different states.

joined_candy %>% filter(Pounds == max(Pounds)) %>% select("competitorname", 
    "winpercent", "State", "Pounds")

## # A tibble: 1 x 4
##   competitorname            winpercent State  Pounds
##   <chr>                          <dbl> <chr>   <dbl>
## 1 Reese's Peanut Butter cup       84.2 CA    1209299

joined_candy %>% arrange(desc(winpercent))

## # A tibble: 51 x 15
##    competitorname chocolate fruity caramel peanutyalmondy nougat
##    <chr>          <lgl>     <lgl>  <lgl>   <lgl>          <lgl> 
##  1 Reese's Peanu TRUE      FALSE  FALSE   TRUE           FALSE 
##  2 Reese's Peanu TRUE      FALSE  FALSE   TRUE           FALSE 
##  3 Reese's Peanu TRUE      FALSE  FALSE   TRUE           FALSE 
##  4 Reese's Peanu TRUE      FALSE  FALSE   TRUE           FALSE 
##  5 Reese's Peanu TRUE      FALSE  FALSE   TRUE           FALSE 
##  6 Reese's Peanu TRUE      FALSE  FALSE   TRUE           FALSE 
##  7 Twix           TRUE      FALSE  TRUE    FALSE          FALSE 
##  8 Milky Way      TRUE      FALSE  TRUE    FALSE          TRUE  
##  9 3 Musketeers   TRUE      FALSE  FALSE   FALSE          TRUE  
## 10 Starburst      FALSE     TRUE   FALSE   FALSE          FALSE 
## #  with 41 more rows, and 9 more variables: crispedricewafer <lgl>,
## #   hard <lgl>, bar <lgl>, pluribus <lgl>, sugarpercent <dbl>,
## #   pricepercent <dbl>, winpercent <dbl>, State <chr>, Pounds <dbl>
…
Starburst
6

Swedish Fish
1

Tootsie Pop
4

Twix
1

joined_candy %>% group_by(State) %>% count

## # A tibble: 51 x 2
## # Groups:   State [51]
##    State     n
##    <chr> <int>
##  1 AK        1
##  2 AL        1
##  3 AR        1
##  4 AZ        1
##  5 CA        1
##  6 CO        1
##  7 CT        1
##  8 DC        1
##  9 DE        1
## 10 FL        1
## #  with 41 more rows
…
